{
    "environment": "develop",
    "dbConfig": {
      "url": "mongodb://172.31.24.107:27017,172.31.25.120:27017,172.31.20.123:27017/nihardev?replicaSet=rs1",
        "token": "40234258eb6de965435481217cc8bfeb",
        "cmsImgPath": "/app/Public2/images/EImages"
    },
    "appFamily": {
        "auth": {
            "title": "auth",
            "domain": "https://test.niharecenter.com/api/auth",
            "path": {
                "login": "/authenticate",
                "logout": "/logout",
                "validateToken": "/validateToken"
            }
        },
        "emovies": {
            "title": "emovies",
            "domain": "https://test.niharecenter.com/api/emovies"
        },
        "invoices": {
            "title": "invoices",
            "domain": "https://test.niharecenter.com/ecommerce/invoice"
        },
        "itdukaan": {
            "name": "itdukaan",
            "domain": "https://test.itdukaan.com"
        },
        "ecenter": {
            "name": "ecenter",
            "domain": "https://www.niharmarketecenter.com"
        },
        "goldsilver": {
            "name": "goldsilver",
            "domain": "http://test.goldnsilver.in:8082"
        },
        "banyanstore": {
            "name": "banyanstore",
            "domain": "https://test.itdukaan.com"
        },
        "makeadeal": {
            "name": "makeadeal",
            "domain": "https://test.itdukaan.com"
        },
        "customercareraisetoken": {
            "name": "customercare",
            "url": "https://www.niharmarketecenter.com/cc_nihar/raisetoken"
        },
        "customercaregetticketsbybp": {
            "name": "customercareticketsbybp",
            "url": "https://www.niharmarketecenter.com/cc_nihar/raisetoken/GetTokensByBP"
        },
        "customercaregetticketsall": {
            "name": "customercaregetticketsall",
            "url": "https://www.niharmarketecenter.com/cc_nihar/raisetoken/GetTokensByAll"
        },
        "customercareticketstatusupdate": {
            "name": "customercareticketstatusupdate",
            "url": "https://www.niharmarketecenter.com/cc_nihar/raisetoken/updatecomplaint"
        }
    }
}
